Chapitre 4 Langage naturel | Le Descriptoire: Recueil et analyse de texte avec R
…
tibtot_commentaires %>% 
  tidytext::unnest_tokens(output="bigramme",
                          input=texte,
                          token="ngrams",
                          n=2)

## # A tibble: 207 × 3
##    doc                      auteur                bigramme      
##    <chr>                    <chr>                 <chr>         
##  1 data/blog_de_ginette.htm Emma, 22 ans, Limoges et pour       
##  2 data/blog_de_ginette.htm Emma, 22 ans, Limoges pour une      
##  3 data/blog_de_ginette.htm Emma, 22 ans, Limoges une poule     
##  4 data/blog_de_ginette.htm Emma, 22 ans, Limoges poule sur     
##  5 data/blog_de_ginette.htm Emma, 22 ans, Limoges sur un        
##  6 data/blog_de_ginette.htm Emma, 22 ans, Limoges un mur        
##  7 data/blog_de_ginette.htm Emma, 22 ans, Limoges mur qui       
##  8 data/blog_de_ginette.htm Emma, 22 ans, Limoges qui picoterait
##  9 data/blog_de_ginette.htm Emma, 22 ans, Limoges picoterait du 
## 10 data/blog_de_ginette.htm Emma, 22 ans, Limoges du pain       
## # … with 197 more rows

tib_mots=tibtot_commentaires %>% 
  tidytext::unnest_tokens(output="mot",
                          input=texte,
                          token="words")
tib_mots

## # A tibble: 219 × 3
##    doc                      auteur                mot       
##    <chr>                    <chr>                 <chr>     
##  1 data/blog_de_ginette.htm Emma, 22 ans, Limoges et        
##  2 data/blog_de_ginette.htm Emma, 22 ans, Limoges pour      
##  3 data/blog_de_ginette.htm Emma, 22 ans, Limoges une       
##  4 data/blog_de_ginette.htm Emma, 22 ans, Limoges poule     
##  5 data/blog_de_ginette.htm Emma, 22 ans, Limoges sur       
##  6 data/blog_de_ginette.htm Emma, 22 ans, Limoges un        
##  7 data/blog_de_ginette.htm Emma, 22 ans, Limoges mur       
##  8 data/blog_de_ginette.htm Emma, 22 ans, Limoges qui       
##  9 data/blog_de_ginette.htm Emma, 22 ans, Limoges picoterait
## 10 data/blog_de_ginette.htm Emma, 22 ans, Limoges du        
## # … with 209 more rows
…
retirer certains mots ou expressions

changer la casse (passer majuscules en minuscules)

retirer les liens, les “hashtags”, les emojis, etc.

etc.

4.2.1 Nettoyage de la table par suppression des mots vides

Pour des textes en anglais, tidytext comprend une liste de mots vides (“stopwords”)

tidytext::stop_words

## # A tibble: 1,149 × 2
##    word        lexicon
##    <chr>       <chr>  
##  1 a           SMART  
##  2 a's         SMART  
##  3 able        SMART  
##  4 about       SMART  
##  5 above       SMART  
##  6 according   SMART  
##  7 accordingly SMART  
##  8 across      SMART  
##  9 actually    SMART  
## 10 after       SMART  
## # … with 1,139 more rows
…
proustr::proust_stopwords()

## # A tibble: 689 × 1
##    word      
##    <chr>     
##  1 a         
##  2 abord     
##  3 absolument
##  4 afin      
##  5 ah        
##  6 ai        
##  7 aie       
##  8 aient     
##  9 aies      
## 10 ailleurs  
## # … with 679 more rows

Pour ne garder que les mots signifiants, on peut ainsi faire une anti-jointure entre notre table et la table renvoyée par proust_stopwords():

tib_mots_nonvides <- tib_mots %>%
  anti_join(proustr::proust_stopwords(),by=c("mot"="word"))
tib_mots_nonvides

## # A tibble: 88 × 3
##    doc                      auteur                mot       
##    <chr>                    <chr>                 <chr>     
##  1 data/blog_de_ginette.htm Emma, 22 ans, Limoges poule     
##  2 data/blog_de_ginette.htm Emma, 22 ans, Limoges mur       
##  3 data/blog_de_ginette.htm Emma, 22 ans, Limoges picoterait
##  4 data/blog_de_ginette.htm Emma, 22 ans, Limoges pain      
##  5 data/blog_de_ginette.htm Emma, 22 ans, Limoges dur       
##  6 data/blog_de_ginette.htm Emma, 22 ans, Limoges c'est     
##  7 data/blog_de_ginette.htm Emma, 22 ans, Limoges nourrir   
##  8 data/blog_de_ginette.htm Emma, 22 ans, Limoges petits    
##  9 data/blog_de_ginette.htm Emma, 22 ans, Limoges cochons   
## 10 data/blog_de_ginette.htm Emma, 22 ans, Limoges qu'en     
## # … with 78 more rows

4.2.2 Nettoyage de la table par racinisation (stemming)

La racinisation (ou désuffixation, ou stemming en anglais) consiste (comme son nom l’indique) à extraire la racine d’un mot. Souvent, cette racine ne correspond pas à un “vrai mot”…

proustr::pr_stem_words(tib_mots_nonvides,mot)

## # A tibble: 88 × 3
##    doc                      auteur                mot   
##  * <chr>                    <chr>                 <chr> 
##  1 data/blog_de_ginette.htm Emma, 22 ans, Limoges poul  
##  2 data/blog_de_ginette.htm Emma, 22 ans, Limoges mur   
##  3 data/blog_de_ginette.htm Emma, 22 ans, Limoges picot 
##  4 data/blog_de_ginette.htm Emma, 22 ans, Limoges pain  
##  5 data/blog_de_ginette.htm Emma, 22 ans, Limoges dur   
##  6 data/blog_de_ginette.htm Emma, 22 ans, Limoges c'est 
##  7 data/blog_de_ginette.htm Emma, 22 ans, Limoges nourr 
##  8 data/blog_de_ginette.htm Emma, 22 ans, Limoges petit 
##  9 data/blog_de_ginette.htm Emma, 22 ans, Limoges cochon
## 10 data/blog_de_ginette.htm Emma, 22 ans, Limoges qu'en 
## # … with 78 more rows
…
Dans ce cas on réalise une jointure pour récupérer le lemme de chaque mot dans notre table:

tib_mots_nonvides <- dplyr::left_join(tib_mots_nonvides,
                                      lexique382,
                                      by=c("mot"="word"))
tib_mots_nonvides %>% 
  dplyr::select(mot,lemma)

## # A tibble: 88 × 2
##    mot        lemma  
##    <chr>      <chr>  
##  1 poule      poule  
##  2 mur        mur    
##  3 picoterait <NA>   
##  4 pain       pain   
##  5 dur        dur    
##  6 c'est      <NA>   
##  7 nourrir    nourrir
##  8 petits     petit  
##  9 cochons    cochon 
## 10 qu'en      <NA>   
## # … with 78 more rows
