Chapitre 7 Rechercher des thèmes (topic modelling) | Le Descriptoire: Recueil et analyse de texte avec R
…
Chacun des thèmes est identifié par des termes privilégiés (selon plusieurs métriques différentes: Highest probability i.e. \(beta\), FREX, lift, score)…

termes_thematiques=tidy(topic_model, matrix="beta") %>% 
  group_by(topic) %>% 
  slice_max(beta,n=10) %>% 
  arrange(topic,desc(beta)) %>% 
  mutate(rank=row_number()) %>% 
  mutate(topic=as.factor(topic))
termes_thematiques

## # A tibble: 150 × 4
## # Groups:   topic [15]
##    topic term         beta  rank
##    <fct> <chr>       <dbl> <int>
##  1 1     faire      0.0304     1
##  2 1     grand      0.0265     2
##  3 1     service    0.0227     3
##  4 1     territoire 0.0225     4
##  5 1     pouvoir    0.0175     5
##  6 1     objectif   0.0163     6
##  7 1     acteur     0.0130     7
##  8 1     public     0.0124     8
##  9 1     an         0.0119     9
## 10 1     solution   0.0118    10
## # … with 140 more rows
…
