Chapitre 6 Résumer l’information par des graphiques | Le Descriptoire: Recueil et analyse de texte avec R
…
tib_top_spec <- mixr::tidy_specificities(tib_lemmes,
                                         lemma,
                                         ministre,
                                         top_spec=10)

## # A tibble: 33,812 × 4
##    cat1       cat2              spec     n
##    <chr>      <chr>            <dbl> <int>
##  1 aa         Barbara Pompili -0.201    NA
##  2 abaissant  Barbara Pompili  0.862     2
##  3 abaisser   Barbara Pompili  0.288     3
##  4 abandon    Barbara Pompili  0.431     1
##  5 abandonner Barbara Pompili -0.536     2
##  6 abattement Barbara Pompili  1.29      3
##  7 abattoir   Barbara Pompili  0.862     2
##  8 abattre    Barbara Pompili  0.862     2
##  9 abbaye     Barbara Pompili -0.201    NA
## 10 abbé       Barbara Pompili  1.72      4
## # … with 33,802 more rows
…
