Chapitre 4 Résumer l’information par des métriques | Le Descriptoire: Recueil et analyse de texte avec R
…
Ici, je n’en ai pas besoin (mon jeu de données est tout petit) mais je pourrais également filtrer les données pour ne garder qu’une fréquence minimale, ou ne garder que les \(n\) mots les plus fréquents…

freq_lemmes %>%
  filter(freq>=5)

## # A tibble: 4,469 × 2
##    lemma       freq
##    <chr>      <int>
##  1 ministre    5946
##  2 transition  4254
##  3 écologique  4007
##  4 projet      3896
##  5 mettre      3157
##  6 presse      3129
##  7 permettre   2896
##  8 national    2831
##  9 territoire  2823
## 10 transport   2646
## # … with 4,459 more rows
…
4.4 Spécificités

Le package textometry (réalisé par l’équipe TXM) comprend une fonction qui permet de calculer des scores de spécificité. Le but de ce score est (comme pour le TF-IDF) d’identifier les termes spécifiques à une partie du corpus. Pour plus de compatibilité avec le tidyverse on peut utiliser la fonction tidy_specificities() qui reformatte la sortie de cette fonction pour renvoyer un résultat tabulaire conforme à la logique “tidyverse”.

Par convention, on interprète un terme comme étant spécifique à une partie du corpus quand son score est supérieur à 2.

mixr::tidy_specificities(tib_lemmes,lemma, doc)

## # A tibble: 24,243,204 × 4
##    lemma                  doc        spec     n
##    <chr>                  <chr>     <dbl> <int>
##  1 "communauté          " "doc1804"  91.8    NA
##  2 "éviter              " "doc1574"  73.5    NA
##  3 "fashion             " "doc1560"  71.8    NA
##  4 "éviter              " "doc337 "  64.1    NA
##  5 "allocataire         " "doc356 "  62.3    NA
##  6 "éviter              " "doc327 "  60.8    NA
##  7 "heure               " "doc2901"  60.2    NA
##  8 "sol                 " "doc73  "  59.6    NA
##  9 "commun              " "doc1804"  58.9    NA
## 10 "chantilly           " "doc257 "  58.9    NA
## # … with 24,243,194 more rows
